x,y,z,c
0,4,1,2
0,5,1,2
1,3,1,16
1,4,1,16
1,5,1,16
1,6,1,16
2,1,1,2
2,2,1,2
2,3,1,2
2,4,1,2
2,5,1,2
3,0,1,16
3,1,1,16
3,2,1,16
3,3,1,16
3,4,1,16
3,5,1,16
3,6,1,16
4,1,1,2
4,2,1,2
4,3,1,2
4,4,1,2
4,5,1,2
5,3,1,16
5,4,1,16
5,5,1,16
5,6,1,16
6,4,1,2
6,5,1,2
1,3,2,17
1,4,2,17
1,5,2,17
2,2,2,1
2,3,2,1
2,4,2,1
2,5,2,1
3,1,2,17
3,2,2,17
3,3,2,17
3,4,2,17
3,5,2,17
3,6,2,17
4,2,2,1
4,3,2,1
4,4,2,1
4,5,2,1
5,3,2,17
5,4,2,17
5,5,2,17
